Team
…
defCleanOrig <- defClean
defClean %>%
  pivot_longer(Tackles_Solo:Pass_PB, names_to = "stat", values_to = "Score") -> defClean

str(defClean)

## tibble [4,518  4] (S3: tbl_df/tbl/data.frame)
##  $ Name             : Factor w/ 43 levels "Akers, Landen",..: 40 40 40 40 40 40 40 40 40 40 ...
##  $ Opponent_Opponent: Factor w/ 13 levels "Baylor","Iowa",..: 12 12 12 12 12 12 12 12 12 2 ...
##  $ stat             : chr [1:4518] "Tackles_Solo" "Tackles_ASST" "Tackles_TFL" "Tackles_Sack" ...
##  $ Score            : num [1:4518] 4 4 0 0 0 0 0 1 1 4 ...

print(defClean)

## # A tibble: 4,518 x 4
##    Name            Opponent_Opponent stat         Score
##    <fct>           <fct>             <chr>        <dbl>
##  1 White, Lawrence UNI               Tackles_Solo     4
##  2 White, Lawrence UNI               Tackles_ASST     4
##  3 White, Lawrence UNI               Tackles_TFL      0
##  4 White, Lawrence UNI               Tackles_Sack     0
##  5 White, Lawrence UNI               Turnover_FF      0
##  6 White, Lawrence UNI               Turnover_FR      0
##  7 White, Lawrence UNI               Turnover_INT     0
##  8 White, Lawrence UNI               Pass_QBH         1
##  9 White, Lawrence UNI               Pass_PB          1
## 10 White, Lawrence Iowa              Tackles_Solo     4
## #  with 4,508 more rows
…
